^C:\USERS\RIAD\DOCUMENTS\BBRAYTRACER\RAYTRACERXX\X64\RELEASE\CAMERA.OBJ|C:\USERS\RIAD\DOCUMENTS\BBRAYTRACER\RAYTRACERXX\X64\RELEASE\MAIN.OBJ|C:\USERS\RIAD\DOCUMENTS\BBRAYTRACER\RAYTRACERXX\X64\RELEASE\MATERIAL.OBJ|C:\USERS\RIAD\DOCUMENTS\BBRAYTRACER\RAYTRACERXX\X64\RELEASE\OBJECT.OBJ|C:\USERS\RIAD\DOCUMENTS\BBRAYTRACER\RAYTRACERXX\X64\RELEASE\PLANE.OBJ|C:\USERS\RIAD\DOCUMENTS\BBRAYTRACER\RAYTRACERXX\X64\RELEASE\POINTLIGHT.OBJ|C:\USERS\RIAD\DOCUMENTS\BBRAYTRACER\RAYTRACERXX\X64\RELEASE\RAY.OBJ|C:\USERS\RIAD\DOCUMENTS\BBRAYTRACER\RAYTRACERXX\X64\RELEASE\RAYTRACER.OBJ|C:\USERS\RIAD\DOCUMENTS\BBRAYTRACER\RAYTRACERXX\X64\RELEASE\SPHERE.OBJ
C:\WINDOWS\GLOBALIZATION\SORTING\SORTDEFAULT.NLS
C:\PROGRAM FILES (X86)\WINDOWS KITS\8.1\LIB\WINV6.3\UM\X64\KERNEL32.LIB
C:\PROGRAM FILES (X86)\WINDOWS KITS\8.1\LIB\WINV6.3\UM\X64\USER32.LIB
C:\PROGRAM FILES (X86)\WINDOWS KITS\8.1\LIB\WINV6.3\UM\X64\GDI32.LIB
C:\PROGRAM FILES (X86)\WINDOWS KITS\8.1\LIB\WINV6.3\UM\X64\WINSPOOL.LIB
C:\PROGRAM FILES (X86)\WINDOWS KITS\8.1\LIB\WINV6.3\UM\X64\COMDLG32.LIB
C:\PROGRAM FILES (X86)\WINDOWS KITS\8.1\LIB\WINV6.3\UM\X64\ADVAPI32.LIB
C:\PROGRAM FILES (X86)\WINDOWS KITS\8.1\LIB\WINV6.3\UM\X64\SHELL32.LIB
C:\PROGRAM FILES (X86)\WINDOWS KITS\8.1\LIB\WINV6.3\UM\X64\OLE32.LIB
C:\PROGRAM FILES (X86)\WINDOWS KITS\8.1\LIB\WINV6.3\UM\X64\OLEAUT32.LIB
C:\PROGRAM FILES (X86)\WINDOWS KITS\8.1\LIB\WINV6.3\UM\X64\UUID.LIB
C:\PROGRAM FILES (X86)\WINDOWS KITS\8.1\LIB\WINV6.3\UM\X64\ODBC32.LIB
C:\PROGRAM FILES (X86)\WINDOWS KITS\8.1\LIB\WINV6.3\UM\X64\ODBCCP32.LIB
C:\USERS\RIAD\DOCUMENTS\BBRAYTRACER\RAYTRACERXX\X64\RELEASE\CAMERA.OBJ
C:\USERS\RIAD\DOCUMENTS\BBRAYTRACER\RAYTRACERXX\X64\RELEASE\MAIN.OBJ
C:\USERS\RIAD\DOCUMENTS\BBRAYTRACER\RAYTRACERXX\X64\RELEASE\MATERIAL.OBJ
C:\USERS\RIAD\DOCUMENTS\BBRAYTRACER\RAYTRACERXX\X64\RELEASE\OBJECT.OBJ
C:\USERS\RIAD\DOCUMENTS\BBRAYTRACER\RAYTRACERXX\X64\RELEASE\PLANE.OBJ
C:\USERS\RIAD\DOCUMENTS\BBRAYTRACER\RAYTRACERXX\X64\RELEASE\POINTLIGHT.OBJ
C:\USERS\RIAD\DOCUMENTS\BBRAYTRACER\RAYTRACERXX\X64\RELEASE\RAY.OBJ
C:\USERS\RIAD\DOCUMENTS\BBRAYTRACER\RAYTRACERXX\X64\RELEASE\RAYTRACER.OBJ
C:\USERS\RIAD\DOCUMENTS\BBRAYTRACER\RAYTRACERXX\X64\RELEASE\SPHERE.OBJ
C:\PROGRAM FILES (X86)\MICROSOFT VISUAL STUDIO 14.0\VC\BIN\X86_AMD64\C2.DLL
C:\PROGRAM FILES (X86)\MICROSOFT VISUAL STUDIO 14.0\VC\LIB\AMD64\MSVCPRT.LIB
C:\PROGRAM FILES (X86)\MICROSOFT VISUAL STUDIO 14.0\VC\LIB\AMD64\MSVCRT.LIB
C:\PROGRAM FILES (X86)\MICROSOFT VISUAL STUDIO 14.0\VC\LIB\AMD64\OLDNAMES.LIB
C:\PROGRAM FILES (X86)\MICROSOFT VISUAL STUDIO 14.0\VC\LIB\AMD64\VCRUNTIME.LIB
C:\PROGRAM FILES (X86)\WINDOWS KITS\10\LIB\10.0.10240.0\UCRT\X64\UCRT.LIB
C:\PROGRAM FILES (X86)\MICROSOFT VISUAL STUDIO 14.0\VC\BIN\X86_AMD64\1033\LINKUI.DLL
C:\PROGRAM FILES (X86)\WINDOWS KITS\8.1\BIN\X86\RC.EXE
C:\PROGRAM FILES (X86)\MICROSOFT VISUAL STUDIO 14.0\VC\BIN\CVTRES.EXE
C:\WINDOWS\SYSTEM32\TZRES.DLL
C:\PROGRAM FILES (X86)\MICROSOFT VISUAL STUDIO 14.0\VC\BIN\X86_AMD64\1033\CLUI.DLL
^C:\USERS\RIAD\DOCUMENTS\VISUAL STUDIO 2015\PROJECTS\BBRAYTRACER\RAYTRACERXX\X64\RELEASE\CAMERA.OBJ|C:\USERS\RIAD\DOCUMENTS\VISUAL STUDIO 2015\PROJECTS\BBRAYTRACER\RAYTRACERXX\X64\RELEASE\MAIN.OBJ|C:\USERS\RIAD\DOCUMENTS\VISUAL STUDIO 2015\PROJECTS\BBRAYTRACER\RAYTRACERXX\X64\RELEASE\MATERIAL.OBJ|C:\USERS\RIAD\DOCUMENTS\VISUAL STUDIO 2015\PROJECTS\BBRAYTRACER\RAYTRACERXX\X64\RELEASE\OBJECT.OBJ|C:\USERS\RIAD\DOCUMENTS\VISUAL STUDIO 2015\PROJECTS\BBRAYTRACER\RAYTRACERXX\X64\RELEASE\PLANE.OBJ|C:\USERS\RIAD\DOCUMENTS\VISUAL STUDIO 2015\PROJECTS\BBRAYTRACER\RAYTRACERXX\X64\RELEASE\POINTLIGHT.OBJ|C:\USERS\RIAD\DOCUMENTS\VISUAL STUDIO 2015\PROJECTS\BBRAYTRACER\RAYTRACERXX\X64\RELEASE\RAY.OBJ|C:\USERS\RIAD\DOCUMENTS\VISUAL STUDIO 2015\PROJECTS\BBRAYTRACER\RAYTRACERXX\X64\RELEASE\RAYTRACER.OBJ|C:\USERS\RIAD\DOCUMENTS\VISUAL STUDIO 2015\PROJECTS\BBRAYTRACER\RAYTRACERXX\X64\RELEASE\SPHERE.OBJ
C:\WINDOWS\GLOBALIZATION\SORTING\SORTDEFAULT.NLS
C:\PROGRAM FILES (X86)\WINDOWS KITS\8.1\LIB\WINV6.3\UM\X64\KERNEL32.LIB
C:\PROGRAM FILES (X86)\WINDOWS KITS\8.1\LIB\WINV6.3\UM\X64\USER32.LIB
C:\PROGRAM FILES (X86)\WINDOWS KITS\8.1\LIB\WINV6.3\UM\X64\GDI32.LIB
C:\PROGRAM FILES (X86)\WINDOWS KITS\8.1\LIB\WINV6.3\UM\X64\WINSPOOL.LIB
C:\PROGRAM FILES (X86)\WINDOWS KITS\8.1\LIB\WINV6.3\UM\X64\COMDLG32.LIB
C:\PROGRAM FILES (X86)\WINDOWS KITS\8.1\LIB\WINV6.3\UM\X64\ADVAPI32.LIB
C:\PROGRAM FILES (X86)\WINDOWS KITS\8.1\LIB\WINV6.3\UM\X64\SHELL32.LIB
C:\PROGRAM FILES (X86)\WINDOWS KITS\8.1\LIB\WINV6.3\UM\X64\OLE32.LIB
C:\PROGRAM FILES (X86)\WINDOWS KITS\8.1\LIB\WINV6.3\UM\X64\OLEAUT32.LIB
C:\PROGRAM FILES (X86)\WINDOWS KITS\8.1\LIB\WINV6.3\UM\X64\UUID.LIB
C:\PROGRAM FILES (X86)\WINDOWS KITS\8.1\LIB\WINV6.3\UM\X64\ODBC32.LIB
C:\PROGRAM FILES (X86)\WINDOWS KITS\8.1\LIB\WINV6.3\UM\X64\ODBCCP32.LIB
C:\USERS\RIAD\DOCUMENTS\VISUAL STUDIO 2015\PROJECTS\BBRAYTRACER\RAYTRACERXX\X64\RELEASE\CAMERA.OBJ
C:\USERS\RIAD\DOCUMENTS\VISUAL STUDIO 2015\PROJECTS\BBRAYTRACER\RAYTRACERXX\X64\RELEASE\MAIN.OBJ
C:\USERS\RIAD\DOCUMENTS\VISUAL STUDIO 2015\PROJECTS\BBRAYTRACER\RAYTRACERXX\X64\RELEASE\MATERIAL.OBJ
C:\USERS\RIAD\DOCUMENTS\VISUAL STUDIO 2015\PROJECTS\BBRAYTRACER\RAYTRACERXX\X64\RELEASE\OBJECT.OBJ
C:\USERS\RIAD\DOCUMENTS\VISUAL STUDIO 2015\PROJECTS\BBRAYTRACER\RAYTRACERXX\X64\RELEASE\PLANE.OBJ
C:\USERS\RIAD\DOCUMENTS\VISUAL STUDIO 2015\PROJECTS\BBRAYTRACER\RAYTRACERXX\X64\RELEASE\POINTLIGHT.OBJ
C:\USERS\RIAD\DOCUMENTS\VISUAL STUDIO 2015\PROJECTS\BBRAYTRACER\RAYTRACERXX\X64\RELEASE\RAY.OBJ
C:\USERS\RIAD\DOCUMENTS\VISUAL STUDIO 2015\PROJECTS\BBRAYTRACER\RAYTRACERXX\X64\RELEASE\RAYTRACER.OBJ
C:\USERS\RIAD\DOCUMENTS\VISUAL STUDIO 2015\PROJECTS\BBRAYTRACER\RAYTRACERXX\X64\RELEASE\SPHERE.OBJ
C:\PROGRAM FILES (X86)\MICROSOFT VISUAL STUDIO 14.0\VC\BIN\X86_AMD64\C2.DLL
C:\PROGRAM FILES (X86)\MICROSOFT VISUAL STUDIO 14.0\VC\LIB\AMD64\MSVCPRT.LIB
C:\PROGRAM FILES (X86)\MICROSOFT VISUAL STUDIO 14.0\VC\LIB\AMD64\MSVCRT.LIB
C:\PROGRAM FILES (X86)\MICROSOFT VISUAL STUDIO 14.0\VC\LIB\AMD64\OLDNAMES.LIB
C:\PROGRAM FILES (X86)\MICROSOFT VISUAL STUDIO 14.0\VC\LIB\AMD64\VCRUNTIME.LIB
C:\PROGRAM FILES (X86)\WINDOWS KITS\10\LIB\10.0.10240.0\UCRT\X64\UCRT.LIB
C:\PROGRAM FILES (X86)\MICROSOFT VISUAL STUDIO 14.0\VC\BIN\X86_AMD64\1033\LINKUI.DLL
C:\USERS\RIAD\DOCUMENTS\VISUAL STUDIO 2015\PROJECTS\BBRAYTRACER\X64\RELEASE\RAYTRACERXX.IPDB
C:\USERS\RIAD\DOCUMENTS\VISUAL STUDIO 2015\PROJECTS\BBRAYTRACER\X64\RELEASE\RAYTRACERXX.IOBJ
C:\PROGRAM FILES (X86)\WINDOWS KITS\8.1\BIN\X86\RC.EXE
C:\PROGRAM FILES (X86)\MICROSOFT VISUAL STUDIO 14.0\VC\BIN\CVTRES.EXE
C:\WINDOWS\SYSTEM32\TZRES.DLL
C:\PROGRAM FILES (X86)\MICROSOFT VISUAL STUDIO 14.0\VC\BIN\X86_AMD64\1033\CLUI.DLL
