^C:\USERS\RIAD\DOCUMENTS\BBRAYTRACER\RAYTRACERXX\X64\RELEASE\CAMERA.OBJ|C:\USERS\RIAD\DOCUMENTS\BBRAYTRACER\RAYTRACERXX\X64\RELEASE\MAIN.OBJ|C:\USERS\RIAD\DOCUMENTS\BBRAYTRACER\RAYTRACERXX\X64\RELEASE\MATERIAL.OBJ|C:\USERS\RIAD\DOCUMENTS\BBRAYTRACER\RAYTRACERXX\X64\RELEASE\OBJECT.OBJ|C:\USERS\RIAD\DOCUMENTS\BBRAYTRACER\RAYTRACERXX\X64\RELEASE\PLANE.OBJ|C:\USERS\RIAD\DOCUMENTS\BBRAYTRACER\RAYTRACERXX\X64\RELEASE\POINTLIGHT.OBJ|C:\USERS\RIAD\DOCUMENTS\BBRAYTRACER\RAYTRACERXX\X64\RELEASE\RAY.OBJ|C:\USERS\RIAD\DOCUMENTS\BBRAYTRACER\RAYTRACERXX\X64\RELEASE\RAYTRACER.OBJ|C:\USERS\RIAD\DOCUMENTS\BBRAYTRACER\RAYTRACERXX\X64\RELEASE\SPHERE.OBJ
C:\USERS\RIAD\DOCUMENTS\BBRAYTRACER\X64\RELEASE\RAYTRACERXX.EXE
C:\USERS\RIAD\DOCUMENTS\BBRAYTRACER\X64\RELEASE\RAYTRACERXX.IPDB
C:\USERS\RIAD\DOCUMENTS\BBRAYTRACER\X64\RELEASE\RAYTRACERXX.IOBJ
C:\USERS\RIAD\DOCUMENTS\BBRAYTRACER\X64\RELEASE\RAYTRACERXX.PDB
^C:\USERS\RIAD\DOCUMENTS\VISUAL STUDIO 2015\PROJECTS\BBRAYTRACER\RAYTRACERXX\X64\RELEASE\CAMERA.OBJ|C:\USERS\RIAD\DOCUMENTS\VISUAL STUDIO 2015\PROJECTS\BBRAYTRACER\RAYTRACERXX\X64\RELEASE\MAIN.OBJ|C:\USERS\RIAD\DOCUMENTS\VISUAL STUDIO 2015\PROJECTS\BBRAYTRACER\RAYTRACERXX\X64\RELEASE\MATERIAL.OBJ|C:\USERS\RIAD\DOCUMENTS\VISUAL STUDIO 2015\PROJECTS\BBRAYTRACER\RAYTRACERXX\X64\RELEASE\OBJECT.OBJ|C:\USERS\RIAD\DOCUMENTS\VISUAL STUDIO 2015\PROJECTS\BBRAYTRACER\RAYTRACERXX\X64\RELEASE\PLANE.OBJ|C:\USERS\RIAD\DOCUMENTS\VISUAL STUDIO 2015\PROJECTS\BBRAYTRACER\RAYTRACERXX\X64\RELEASE\POINTLIGHT.OBJ|C:\USERS\RIAD\DOCUMENTS\VISUAL STUDIO 2015\PROJECTS\BBRAYTRACER\RAYTRACERXX\X64\RELEASE\RAY.OBJ|C:\USERS\RIAD\DOCUMENTS\VISUAL STUDIO 2015\PROJECTS\BBRAYTRACER\RAYTRACERXX\X64\RELEASE\RAYTRACER.OBJ|C:\USERS\RIAD\DOCUMENTS\VISUAL STUDIO 2015\PROJECTS\BBRAYTRACER\RAYTRACERXX\X64\RELEASE\SPHERE.OBJ
C:\USERS\RIAD\DOCUMENTS\VISUAL STUDIO 2015\PROJECTS\BBRAYTRACER\X64\RELEASE\RAYTRACERXX.EXE
C:\USERS\RIAD\DOCUMENTS\VISUAL STUDIO 2015\PROJECTS\BBRAYTRACER\X64\RELEASE\RAYTRACERXX.IPDB
C:\USERS\RIAD\DOCUMENTS\VISUAL STUDIO 2015\PROJECTS\BBRAYTRACER\X64\RELEASE\RAYTRACERXX.IOBJ
C:\USERS\RIAD\DOCUMENTS\VISUAL STUDIO 2015\PROJECTS\BBRAYTRACER\X64\RELEASE\RAYTRACERXX.PDB
