^C:\USERS\RIAD\DOCUMENTS\VISUAL STUDIO 2015\PROJECTS\RAYTRACERXX\RAYTRACERXX\X64\DEBUG\CAMERA.OBJ|C:\USERS\RIAD\DOCUMENTS\VISUAL STUDIO 2015\PROJECTS\RAYTRACERXX\RAYTRACERXX\X64\DEBUG\MAIN.OBJ|C:\USERS\RIAD\DOCUMENTS\VISUAL STUDIO 2015\PROJECTS\RAYTRACERXX\RAYTRACERXX\X64\DEBUG\MATERIAL.OBJ|C:\USERS\RIAD\DOCUMENTS\VISUAL STUDIO 2015\PROJECTS\RAYTRACERXX\RAYTRACERXX\X64\DEBUG\OBJECT.OBJ|C:\USERS\RIAD\DOCUMENTS\VISUAL STUDIO 2015\PROJECTS\RAYTRACERXX\RAYTRACERXX\X64\DEBUG\PLANE.OBJ|C:\USERS\RIAD\DOCUMENTS\VISUAL STUDIO 2015\PROJECTS\RAYTRACERXX\RAYTRACERXX\X64\DEBUG\POINTLIGHT.OBJ|C:\USERS\RIAD\DOCUMENTS\VISUAL STUDIO 2015\PROJECTS\RAYTRACERXX\RAYTRACERXX\X64\DEBUG\RAY.OBJ|C:\USERS\RIAD\DOCUMENTS\VISUAL STUDIO 2015\PROJECTS\RAYTRACERXX\RAYTRACERXX\X64\DEBUG\RAYTRACER.OBJ|C:\USERS\RIAD\DOCUMENTS\VISUAL STUDIO 2015\PROJECTS\RAYTRACERXX\RAYTRACERXX\X64\DEBUG\SPHERE.OBJ
C:\USERS\RIAD\DOCUMENTS\VISUAL STUDIO 2015\PROJECTS\RAYTRACERXX\X64\DEBUG\RAYTRACERXX.ILK
C:\USERS\RIAD\DOCUMENTS\VISUAL STUDIO 2015\PROJECTS\RAYTRACERXX\X64\DEBUG\RAYTRACERXX.EXE
C:\USERS\RIAD\DOCUMENTS\VISUAL STUDIO 2015\PROJECTS\RAYTRACERXX\X64\DEBUG\RAYTRACERXX.PDB
^C:\USERS\RIAD\DOCUMENTS\BBRAYTRACER\RAYTRACERXX\X64\DEBUG\CAMERA.OBJ|C:\USERS\RIAD\DOCUMENTS\BBRAYTRACER\RAYTRACERXX\X64\DEBUG\MAIN.OBJ|C:\USERS\RIAD\DOCUMENTS\BBRAYTRACER\RAYTRACERXX\X64\DEBUG\MATERIAL.OBJ|C:\USERS\RIAD\DOCUMENTS\BBRAYTRACER\RAYTRACERXX\X64\DEBUG\OBJECT.OBJ|C:\USERS\RIAD\DOCUMENTS\BBRAYTRACER\RAYTRACERXX\X64\DEBUG\PLANE.OBJ|C:\USERS\RIAD\DOCUMENTS\BBRAYTRACER\RAYTRACERXX\X64\DEBUG\POINTLIGHT.OBJ|C:\USERS\RIAD\DOCUMENTS\BBRAYTRACER\RAYTRACERXX\X64\DEBUG\RAY.OBJ|C:\USERS\RIAD\DOCUMENTS\BBRAYTRACER\RAYTRACERXX\X64\DEBUG\RAYTRACER.OBJ|C:\USERS\RIAD\DOCUMENTS\BBRAYTRACER\RAYTRACERXX\X64\DEBUG\SPHERE.OBJ
C:\USERS\RIAD\DOCUMENTS\BBRAYTRACER\X64\DEBUG\RAYTRACERXX.ILK
C:\USERS\RIAD\DOCUMENTS\BBRAYTRACER\X64\DEBUG\RAYTRACERXX.EXE
C:\USERS\RIAD\DOCUMENTS\BBRAYTRACER\X64\DEBUG\RAYTRACERXX.PDB
